3 Data transformation – R for Data Science (2e)
…
3.6 Case study: aggregates and sample size

Whenever you do any aggregation, it’s always a good idea to include a count (n()). That way, you can ensure that you’re not drawing conclusions based on very small amounts of data. We’ll demonstrate this with some baseball data from the Lahman package. Specifically, we will compare what proportion of times a player gets a hit (H) vs. the number of times they try to put the ball in play (AB):

batters <- Lahman::Batting |> 
  group_by(playerID) |> 
  summarize(
    performance = sum(H, na.rm = TRUE) / sum(AB, na.rm = TRUE),
    n = sum(AB, na.rm = TRUE)
  )
batters
#> # A tibble: 20,985 × 3
#>   playerID  performance     n
#>   <chr>           <dbl> <int>
#> 1 aardsda01      0          4
#> 2 aaronha01      0.305  12364
#> 3 aaronto01      0.229    944
#> 4 aasedo01       0          5
#> 5 abadan01       0.0952    21
#> 6 abadfe01       0.111      9
#> # ℹ 20,979 more rows
…
Note the handy pattern for combining ggplot2 and dplyr. You just have to remember to switch from |>, for dataset processing, to + for adding layers to your plot.

This also has important implications for ranking. If you naively sort on desc(performance), the people with the best batting averages are clearly the ones who tried to put the ball in play very few times and happened to get a hit, they’re not necessarily the most skilled players:

batters |> 
  arrange(desc(performance))
#> # A tibble: 20,985 × 3
#>   playerID  performance     n
#>   <chr>           <dbl> <int>
#> 1 abramge01           1     1
#> 2 alberan01           1     1
#> 3 banisje01           1     1
#> 4 bartocl01           1     1
#> 5 bassdo01            1     1
#> 6 birasst01           1     2
#> # ℹ 20,979 more rows
…
