3 Data transformation – R for Data Science (2e)
…
3.5 Groups

So far you’ve learned about functions that work with rows and columns. dplyr gets even more powerful when you add in the ability to work with groups. In this section, we’ll focus on the most important functions: group_by(), summarize(), and the slice family of functions.

3.5.1 group_by()

Use group_by() to divide your dataset into groups meaningful for your analysis:

flights |> 
  group_by(month)
#> # A tibble: 336,776 × 19
#> # Groups:   month [12]
#>    year month   day dep_time sched_dep_time dep_delay arr_time sched_arr_time
#>   <int> <int> <int>    <int>          <int>     <dbl>    <int>          <int>
#> 1  2013     1     1      517            515         2      830            819
#> 2  2013     1     1      533            529         4      850            830
#> 3  2013     1     1      542            540         2      923            850
#> 4  2013     1     1      544            545        -1     1004           1022
#> 5  2013     1     1      554            600        -6      812            837
#> 6  2013     1     1      554            558        -4      740            728
#> # ℹ 336,770 more rows
#> # ℹ 11 more variables: arr_delay <dbl>, carrier <chr>, flight <int>, …

group_by() doesn’t change the data but, if you look closely at the output, you’ll notice that the output indicates that it is “grouped by” month (Groups: month [12]). This means subsequent operations will now work “by month”. group_by() adds this grouped feature (referred to as class) to the data frame, which changes the behavior of the subsequent verbs applied to the data.

3.5.2 summarize()

The most important grouped operation is a summary, which, if being used to calculate a single summary statistic, reduces the data frame to have a single row for each group. In dplyr, this operation is performed by summarize()3, as shown by the following example, which computes the average departure delay by month:

flights |> 
  group_by(month) |> 
  summarize(
    avg_delay = mean(dep_delay)
  )
#> # A tibble: 12 × 2
#>   month avg_delay
#>   <int>     <dbl>
#> 1     1        NA
#> 2     2        NA
#> 3     3        NA
#> 4     4        NA
#> 5     5        NA
#> 6     6        NA
#> # ℹ 6 more rows

Uh-oh! Something has gone wrong, and all of our results are NAs (pronounced “N-A”), R’s symbol for missing value. This happened because some of the observed flights had missing data in the delay column, and so when we calculated the mean including those values, we got an NA result. We’ll come back to discuss missing values in detail in Chapter 18, but for now, we’ll tell the mean() function to ignore all missing values by setting the argument na.rm to TRUE:

flights |> 
  group_by(month) |> 
  summarize(
    avg_delay = mean(dep_delay, na.rm = TRUE)
  )
#> # A tibble: 12 × 2
#>   month avg_delay
#>   <int>     <dbl>
#> 1     1      10.0
#> 2     2      10.8
#> 3     3      13.2
#> 4     4      13.9
#> 5     5      13.0
#> 6     6      20.8
#> # ℹ 6 more rows

You can create any number of summaries in a single call to summarize(). You’ll learn various useful summaries in the upcoming chapters, but one very useful summary is n(), which returns the number of rows in each group:

flights |> 
  group_by(month) |> 
  summarize(
    avg_delay = mean(dep_delay, na.rm = TRUE), 
    n = n()
  )
#> # A tibble: 12 × 3
#>   month avg_delay     n
#>   <int>     <dbl> <int>
#> 1     1      10.0 27004
#> 2     2      10.8 24951
#> 3     3      13.2 28834
#> 4     4      13.9 28330
#> 5     5      13.0 28796
#> 6     6      20.8 28243
#> # ℹ 6 more rows
…
df |> slice_tail(n = 1) takes the last row in each group.

df |> slice_min(x, n = 1) takes the row with the smallest value of column x.

df |> slice_max(x, n = 1) takes the row with the largest value of column x.

df |> slice_sample(n = 1) takes one random row.

You can vary n to select more than one row, or instead of n =, you can use prop = 0.1 to select (e.g.) 10% of the rows in each group. For example, the following code finds the flights that are most delayed upon arrival at each destination:

flights |> 
  group_by(dest) |> 
  slice_max(arr_delay, n = 1) |>
  relocate(dest)
#> # A tibble: 108 × 19
#> # Groups:   dest [105]
#>   dest   year month   day dep_time sched_dep_time dep_delay arr_time
#>   <chr> <int> <int> <int>    <int>          <int>     <dbl>    <int>
#> 1 ABQ    2013     7    22     2145           2007        98      132
#> 2 ACK    2013     7    23     1139            800       219     1250
#> 3 ALB    2013     1    25      123           2000       323      229
#> 4 ANC    2013     8    17     1740           1625        75     2042
#> 5 ATL    2013     7    22     2257            759       898      121
#> 6 AUS    2013     7    10     2056           1505       351     2347
#> # ℹ 102 more rows
#> # ℹ 11 more variables: sched_arr_time <int>, arr_delay <dbl>, …

Note that there are 105 destinations but we get 108 rows here. What’s up? slice_min() and slice_max() keep tied values so n = 1 means give us all rows with the highest value. If you want exactly one row per group you can set with_ties = FALSE.

This is similar to computing the max delay with summarize(), but you get the whole corresponding row (or rows if there’s a tie) instead of the single summary statistic.

3.5.4 Grouping by multiple variables

You can create groups using more than one variable. For example, we could make a group for each date.

daily <- flights |>  
  group_by(year, month, day)
daily
#> # A tibble: 336,776 × 19
#> # Groups:   year, month, day [365]
#>    year month   day dep_time sched_dep_time dep_delay arr_time sched_arr_time
#>   <int> <int> <int>    <int>          <int>     <dbl>    <int>          <int>
#> 1  2013     1     1      517            515         2      830            819
#> 2  2013     1     1      533            529         4      850            830
#> 3  2013     1     1      542            540         2      923            850
#> 4  2013     1     1      544            545        -1     1004           1022
#> 5  2013     1     1      554            600        -6      812            837
#> 6  2013     1     1      554            558        -4      740            728
#> # ℹ 336,770 more rows
#> # ℹ 11 more variables: arr_delay <dbl>, carrier <chr>, flight <int>, …
…
daily_flights <- daily |> 
  summarize(
    n = n(), 
    .groups = "drop_last"
  )

Alternatively, change the default behavior by setting a different value, e.g., "drop" to drop all grouping or "keep" to preserve the same groups.

3.5.5 Ungrouping

You might also want to remove grouping from a data frame without using summarize(). You can do this with ungroup().

daily |> 
  ungroup()
#> # A tibble: 336,776 × 19
#>    year month   day dep_time sched_dep_time dep_delay arr_time sched_arr_time
#>   <int> <int> <int>    <int>          <int>     <dbl>    <int>          <int>
#> 1  2013     1     1      517            515         2      830            819
#> 2  2013     1     1      533            529         4      850            830
#> 3  2013     1     1      542            540         2      923            850
#> 4  2013     1     1      544            545        -1     1004           1022
#> 5  2013     1     1      554            600        -6      812            837
#> 6  2013     1     1      554            558        -4      740            728
#> # ℹ 336,770 more rows
#> # ℹ 11 more variables: arr_delay <dbl>, carrier <chr>, flight <int>, …
…
